{
  "android-instant": {
    "REMOTE_SERVER_ROOT": "",
    "host": "",
    "packageName": "org.cocos2d.xCron",
    "pathPattern": "",
    "recordPath": "",
    "scheme": "https",
    "skipRecord": false
  },
  "appBundle": false,
  "baidugame": {
    "REMOTE_SERVER_ROOT": "",
    "appid": "testappid",
    "orientation": "portrait",
    "subContext": ""
  },
  "encryptJs": true,
  "excludeScenes": [
    "b19ff907-7911-4c3b-a7d8-e649ff95bda5",
    "1d09a8c9-4175-4955-ae6a-4c7d07792122",
    "3bef5c0f-10f0-4387-b12c-8604f4e3d72c",
    "82b602bd-d0e4-4939-9b27-fb4d2215f570"
  ],
  "fb-instant-games": {},
  "includeSDKBox": false,
  "inlineSpriteFrames": true,
  "inlineSpriteFrames_native": true,
  "md5Cache": true,
  "mergeStartScene": true,
  "optimizeHotUpdate": false,
  "orientation": {
    "landscapeLeft": true,
    "landscapeRight": true,
    "portrait": false,
    "upsideDown": false
  },
  "packageName": "org.cocos2d.xCron",
  "qqplay": {
    "REMOTE_SERVER_ROOT": "",
    "orientation": "portrait"
  },
  "startScene": "13c46432-a5ed-4061-bc89-72c0e66d9404",
  "title": "LuckyCat",
  "webOrientation": "landscape",
  "wechatgame": {
    "REMOTE_SERVER_ROOT": "",
    "appid": "wx6ac3f5090a6b99c5",
    "orientation": "portrait",
    "subContext": ""
  },
  "xxteaKey": "8dd51420-703d-4f",
  "zipCompressJs": true,
  "android": {
    "packageName": "org.cocos2d.xCron"
  },
  "ios": {
    "packageName": "org.cocos2d.xCron"
  },
  "mac": {
    "packageName": "org.cocos2d.xCron"
  },
  "win32": {}
}
