{
  "__type__": "cc.AnimationClip",
  "_name": "moveSymbol",
  "_objFlags": 0,
  "_native": "",
  "_duration": 0.5,
  "sample": 60,
  "speed": 1,
  "wrapMode": 1,
  "curveData": {
    "props": {
      "position": [
        {
          "frame": 0,
          "value": [
            305,
            487.508,
            0
          ]
        },
        {
          "frame": 0.5,
          "value": [
            305,
            -67.331,
            0
          ]
        }
      ]
    }
  },
  "events": []
}